{
    "content": {
        "href": "https://api.spotify.com/v1/views/browse-page-cx-test?content_limit=20&locale=es&platform=web&country=AU&timestamp=2022-05-30T02:33:21.341&types=track%2Calbum%2Cplaylist%2Cplaylist_v2%2Cartist%2Ccollection_artist%2Ccollection_album&limit=50&offset=0",
        "items": [
            {
                "content": {
                    "href": "https://api.spotify.com/v1/views/top-genres?content_limit=20&locale=es&platform=web&country=AU&timestamp=2022-05-30T02:33:21.341&types=track%2Calbum%2Cplaylist%2Cplaylist_v2%2Cartist%2Ccollection_artist%2Ccollection_album&limit=20&offset=0",
                    "items": [
                        {
                            "href": "https://api.spotify.com/v1/views/hiphop",
                            "images": [
                                {
                                    "url": "https://t.scdn.co/media/original/hip-274_0a661854d61e29eace5fe63f73495e68_274x274.jpg"
                                }
                            ],
                            "name": "Hip hop",
                            "type": "link"
                        },
                        {
                            "href": "https://api.spotify.com/v1/views/pop",
                            "images": [
                                {
                                    "url": "https://t.scdn.co/media/derived/pop-274x274_447148649685019f5e2a03a39e78ba52_0_0_274_274.jpg"
                                }
                            ],
                            "name": "Pop",
                            "type": "link"
                        },
                        {
                            "href": "https://api.spotify.com/v1/views/rock",
                            "images": [
                                {
                                    "url": "https://t.scdn.co/media/derived/rock_9ce79e0a4ef901bbd10494f5b855d3cc_0_0_274_274.jpg"
                                }
                            ],
                            "name": "Rock",
                            "type": "link"
                        },
                        {
                            "href": "https://api.spotify.com/v1/views/indie_alt",
                            "images": [
                                {
                                    "url": "https://t.scdn.co/images/fe06caf056474bc58862591cd60b57fc.jpeg"
                                }
                            ],
                            "name": "Indie",
                            "type": "link"
                        }
                    ],
                    "limit": 20,
                    "next": null,
                    "offset": 0,
                    "previous": null,
                    "total": 4
                },
                "custom_fields": {},
                "external_urls": null,
                "href": "https://api.spotify.com/v1/views/top-genres",
                "id": "top-genres",
                "images": [],
                "name": "Tus géneros más escuchados",
                "rendering": "GRID",
                "tag_line": null,
                "type": "view"
            },
            {
                "content": {
                    "href": "https://api.spotify.com/v1/views/browse-grid-mobile?content_limit=20&locale=es&platform=web&country=AU&timestamp=2022-05-30T02:33:21.341&types=track%2Calbum%2Cplaylist%2Cplaylist_v2%2Cartist%2Ccollection_artist%2Ccollection_album&limit=20&offset=0",
                    "items": [
                        {
                            "href": "https://api.spotify.com/v1/views/edm_dance",
                            "images": [
                                {
                                    "url": "https://t.scdn.co/media/derived/edm-274x274_0ef612604200a9c14995432994455a6d_0_0_274_274.jpg"
                                }
                            ],
                            "name": "Dance y electrónica",
                            "type": "link"
                        },
                        {
                            "href": "https://api.spotify.com/v1/views/mood",
                            "images": [
                                {
                                    "url": "https://t.scdn.co/media/original/mood-274x274_976986a31ac8c49794cbdc7246fd5ad7_274x274.jpg"
                                }
                            ],
                            "name": "Estado de ánimo",
                            "type": "link"
                        },
                        {
                            "href": "https://api.spotify.com/v1/views/0JQ5DAqbMKFJxqMl7ZRGvN",
                            "images": [
                                {
                                    "url": "https://t.scdn.co/images/28080e4c6da7498083a795874d292904.jpeg"
                                }
                            ],
                            "name": "The Local Hub",
                            "type": "link"
                        },
                        {
                            "href": "https://api.spotify.com/v1/views/0JQ5DAqbMKFIVNxQgRNSg0",
                            "images": [
                                {
                                    "url": "https://t.scdn.co/images/b611cf5145764c64b80e91ccd5f357c8"
                                }
                            ],
                            "name": "Décadas",
                            "type": "link"
                        },
                        {
                            "href": "https://api.spotify.com/v1/views/alternative-page",
                            "images": [
                                {
                                    "url": "https://t.scdn.co/images/ee9451b3ed474c82b1da8f9b5eafc88f.jpeg"
                                }
                            ],
                            "name": "Alternativa",
                            "type": "link"
                        },
                        {
                            "href": "https://api.spotify.com/v1/views/workout-page",
                            "images": [
                                {
                                    "url": "https://t.scdn.co/media/links/workout-274x274.jpg"
                                }
                            ],
                            "name": "Ejercicio",
                            "type": "link"
                        },
                        {
                            "href": "https://api.spotify.com/v1/views/0JQ5DAqbMKFF9bY76LXmfI",
                            "images": [
                                {
                                    "url": "https://t.scdn.co/images/cad629fb65a14de4beddb38510e27cb1"
                                }
                            ],
                            "name": "Frequency",
                            "type": "link"
                        },
                        {
                            "href": "https://api.spotify.com/v1/views/pride",
                            "images": [
                                {
                                    "url": "https://t.scdn.co/images/c5495b9f0f694ffcb39c9217d4ed4375"
                                }
                            ],
                            "name": "Pride",
                            "type": "link"
                        },
                        {
                            "href": "https://api.spotify.com/v1/views/0JQ5DAqbMKFPw634sFwguI",
                            "images": [
                                {
                                    "url": "https://t.scdn.co/images/084155aeaa724ea1bd393a017d67b709"
                                }
                            ],
                            "name": "EQUAL",
                            "type": "link"
                        },
                        {
                            "href": "https://api.spotify.com/v1/views/in_the_car-page",
                            "images": [
                                {
                                    "url": "https://t.scdn.co/images/57017d435c344bb28efba325b7c9e7c6.jpeg"
                                }
                            ],
                            "name": "En el coche",
                            "type": "link"
                        },
                        {
                            "href": "https://api.spotify.com/v1/views/radar-page",
                            "images": [
                                {
                                    "url": "https://t.scdn.co/images/c6677aa51acf4121b66b9d1f231bd427.png"
                                }
                            ],
                            "name": "RADAR",
                            "type": "link"
                        },
                        {
                            "href": "https://api.spotify.com/v1/views/music_and_talk-page",
                            "images": [
                                {
                                    "url": "https://t.scdn.co/images/487ecec9ae594690a55c0150b1958eff"
                                }
                            ],
                            "name": "Música + Charla",
                            "type": "link"
                        },
                        {
                            "href": "https://api.spotify.com/v1/views/netflix-page",
                            "images": [
                                {
                                    "url": "https://t.scdn.co/images/1a416fb97f5647858c7f09c9cb6e7301"
                                }
                            ],
                            "name": "Netflix",
                            "type": "link"
                        }
                    ],
                    "limit": 20,
                    "next": "https://api.spotify.com/v1/views/browse-grid-mobile?content_limit=20&locale=es&platform=web&country=AU&timestamp=2022-05-30T02:33:21.341&types=track%2Calbum%2Cplaylist%2Cplaylist_v2%2Cartist%2Ccollection_artist%2Ccollection_album&limit=20&offset=20",
                    "offset": 0,
                    "previous": null,
                    "total": 64
                },
                "custom_fields": {},
                "external_urls": null,
                "href": "https://api.spotify.com/v1/views/browse-grid-mobile",
                "id": "browse-grid-mobile",
                "images": [],
                "name": "Explorar todo",
                "rendering": "GRID",
                "tag_line": null,
                "type": "view"
            }
        ],
        "limit": 50,
        "next": null,
        "offset": 0,
        "previous": null,
        "total": 2
    },
    "custom_fields": {},
    "external_urls": null,
    "href": "https://api.spotify.com/v1/views/browse-page-cx-test",
    "id": "browse-page-cx-test",
    "images": [],
    "name": "Explorar",
    "rendering": "STACK",
    "tag_line": null,
    "type": "view"
}